\relax 
\providecommand\hyper@newdestlabel[2]{}
\providecommand\HyperFirstAtBeginDocument{\AtBeginDocument}
\HyperFirstAtBeginDocument{\ifx\hyper@anchor\@undefined
\global\let\oldcontentsline\contentsline
\gdef\contentsline#1#2#3#4{\oldcontentsline{#1}{#2}{#3}}
\global\let\oldnewlabel\newlabel
\gdef\newlabel#1#2{\newlabelxx{#1}#2}
\gdef\newlabelxx#1#2#3#4#5#6{\oldnewlabel{#1}{{#2}{#3}}}
\AtEndDocument{\ifx\hyper@anchor\@undefined
\let\contentsline\oldcontentsline
\let\newlabel\oldnewlabel
\fi}
\fi}
\global\let\hyper@last\relax 
\gdef\HyperFirstAtBeginDocument#1{#1}
\providecommand\HyField@AuxAddToFields[1]{}
\providecommand\HyField@AuxAddToCoFields[2]{}
\catcode `"\active 
\babel@aux{ngerman}{}
\gdef \LT@i {\LT@entry 
    {1}{33.54158pt}\LT@entry 
    {1}{38.67345pt}\LT@entry 
    {1}{213.16928pt}\LT@entry 
    {1}{30.62491pt}\LT@entry 
    {1}{34.36101pt}}
\gdef \LT@ii {\LT@entry 
    {1}{33.54158pt}\LT@entry 
    {1}{38.67345pt}\LT@entry 
    {1}{198.9429pt}\LT@entry 
    {1}{30.62491pt}\LT@entry 
    {1}{46.22345pt}\LT@entry 
    {1}{36.15265pt}}
\gdef \LT@iii {\LT@entry 
    {1}{33.54158pt}\LT@entry 
    {1}{38.67345pt}\LT@entry 
    {1}{213.16928pt}\LT@entry 
    {1}{30.62491pt}\LT@entry 
    {1}{34.36101pt}}
\gdef \LT@iv {\LT@entry 
    {2}{34.77786pt}\LT@entry 
    {1}{38.67345pt}\LT@entry 
    {1}{213.16928pt}\LT@entry 
    {1}{30.62491pt}\LT@entry 
    {1}{34.36101pt}}
\@writefile{toc}{\contentsline {chapter}{\numberline {1}Status}{3}{chapter.1}}
\@writefile{lof}{\addvspace {10\p@ }}
\@writefile{lot}{\addvspace {10\p@ }}
\@writefile{toc}{\contentsline {section}{\numberline {1.1}Selected for Sprint}{3}{section.1.1}}
\@writefile{toc}{\contentsline {section}{\numberline {1.2}Assigned}{3}{section.1.2}}
\@writefile{toc}{\contentsline {section}{\numberline {1.3}Backlog}{3}{section.1.3}}
\@writefile{toc}{\contentsline {section}{\numberline {1.4}Requirements Elaboration List}{3}{section.1.4}}
\gdef \LT@v {\LT@entry 
    {1}{36.70172pt}\LT@entry 
    {1}{170.49014pt}\LT@entry 
    {1}{29.2317pt}\LT@entry 
    {1}{43.6984pt}\LT@entry 
    {1}{34.365pt}\LT@entry 
    {1}{36.12819pt}\LT@entry 
    {1}{27.82555pt}}
\gdef \LT@vi {\LT@entry 
    {1}{123.61139pt}\LT@entry 
    {1}{58.6668pt}\LT@entry 
    {1}{53.72234pt}}
\@writefile{toc}{\contentsline {section}{\numberline {1.5}Finished}{4}{section.1.5}}
\@writefile{toc}{\contentsline {section}{\numberline {1.6}Statistics}{4}{section.1.6}}
\@writefile{toc}{\contentsline {chapter}{\numberline {2}Anforderungen an die Dokumentation eines Projektes}{5}{chapter.2}}
\@writefile{lof}{\addvspace {10\p@ }}
\@writefile{lot}{\addvspace {10\p@ }}
\@writefile{toc}{\contentsline {section}{\numberline {2.1}Anforderungen an die Dokumentation}{5}{section.2.1}}
\@writefile{toc}{\contentsline {subsection}{\numberline {2.1.1}Anforderungen}{5}{subsection.2.1.1}}
\newlabel{Anforderungen}{{2.1.1}{5}{Anforderungen}{subsection.2.1.1}{}}
\@writefile{toc}{\contentsline {subsection}{\numberline {2.1.2}Deutsch}{5}{subsection.2.1.2}}
\newlabel{Deutsch}{{2.1.2}{5}{Deutsch}{subsection.2.1.2}{}}
\@writefile{toc}{\contentsline {subsection}{\numberline {2.1.3}Dokumentation}{6}{subsection.2.1.3}}
\newlabel{Dokumentation}{{2.1.3}{6}{Dokumentation}{subsection.2.1.3}{}}
\@writefile{toc}{\contentsline {subsection}{\numberline {2.1.4}Englisch}{6}{subsection.2.1.4}}
\newlabel{Englisch}{{2.1.4}{6}{Englisch}{subsection.2.1.4}{}}
\@writefile{toc}{\contentsline {subsection}{\numberline {2.1.5}FAQ}{6}{subsection.2.1.5}}
\newlabel{FAQ}{{2.1.5}{6}{FAQ}{subsection.2.1.5}{}}
\@writefile{toc}{\contentsline {subsection}{\numberline {2.1.6}Google Translator}{6}{subsection.2.1.6}}
\newlabel{GoogleTranslator}{{2.1.6}{6}{Google Translator}{subsection.2.1.6}{}}
\@writefile{toc}{\contentsline {subsection}{\numberline {2.1.7}Howto}{6}{subsection.2.1.7}}
\newlabel{HowTo}{{2.1.7}{6}{Howto}{subsection.2.1.7}{}}
\@writefile{toc}{\contentsline {subsection}{\numberline {2.1.8}Installation Manual}{7}{subsection.2.1.8}}
\newlabel{InstallationManual}{{2.1.8}{7}{Installation Manual}{subsection.2.1.8}{}}
\@writefile{toc}{\contentsline {subsection}{\numberline {2.1.9}Kollaborationsplattform}{7}{subsection.2.1.9}}
\newlabel{Kollaborationsplattform}{{2.1.9}{7}{Kollaborationsplattform}{subsection.2.1.9}{}}
\@writefile{toc}{\contentsline {subsection}{\numberline {2.1.10}Properties File de}{7}{subsection.2.1.10}}
\newlabel{Properties-File-de}{{2.1.10}{7}{Properties File de}{subsection.2.1.10}{}}
\@writefile{toc}{\contentsline {subsection}{\numberline {2.1.11}Properties File en}{7}{subsection.2.1.11}}
\newlabel{Properties-File-en}{{2.1.11}{7}{Properties File en}{subsection.2.1.11}{}}
\@writefile{toc}{\contentsline {subsection}{\numberline {2.1.12}Sprache}{7}{subsection.2.1.12}}
\newlabel{Sprache}{{2.1.12}{7}{Sprache}{subsection.2.1.12}{}}
\@writefile{toc}{\contentsline {subsection}{\numberline {2.1.13}Twiki}{8}{subsection.2.1.13}}
\newlabel{Twiki}{{2.1.13}{8}{Twiki}{subsection.2.1.13}{}}
\@writefile{toc}{\contentsline {subsection}{\numberline {2.1.14}\IeC {\"U}bersetzungen}{8}{subsection.2.1.14}}
\newlabel{Uebersetzungen}{{2.1.14}{8}{Übersetzungen}{subsection.2.1.14}{}}
\@writefile{toc}{\contentsline {subsection}{\numberline {2.1.15}\IeC {\"U}bersetzungstabelle Properties File}{8}{subsection.2.1.15}}
\newlabel{Uebersetzungstabelle-Properties-File}{{2.1.15}{8}{Übersetzungstabelle Properties File}{subsection.2.1.15}{}}
\@writefile{toc}{\contentsline {subsection}{\numberline {2.1.16}User Manual}{8}{subsection.2.1.16}}
\newlabel{UserManual}{{2.1.16}{8}{User Manual}{subsection.2.1.16}{}}
\@writefile{toc}{\contentsline {subsection}{\numberline {2.1.17}Weitere Sprachen}{9}{subsection.2.1.17}}
\newlabel{WeitereSprachen}{{2.1.17}{9}{Weitere Sprachen}{subsection.2.1.17}{}}
\@writefile{toc}{\contentsline {subsection}{\numberline {2.1.18}rmtoo}{9}{subsection.2.1.18}}
\newlabel{rmtoo}{{2.1.18}{9}{rmtoo}{subsection.2.1.18}{}}
