\relax 
\providecommand\hyper@newdestlabel[2]{}
\providecommand\HyperFirstAtBeginDocument{\AtBeginDocument}
\HyperFirstAtBeginDocument{\ifx\hyper@anchor\@undefined
\global\let\oldcontentsline\contentsline
\gdef\contentsline#1#2#3#4{\oldcontentsline{#1}{#2}{#3}}
\global\let\oldnewlabel\newlabel
\gdef\newlabel#1#2{\newlabelxx{#1}#2}
\gdef\newlabelxx#1#2#3#4#5#6{\oldnewlabel{#1}{{#2}{#3}}}
\AtEndDocument{\ifx\hyper@anchor\@undefined
\let\contentsline\oldcontentsline
\let\newlabel\oldnewlabel
\fi}
\fi}
\global\let\hyper@last\relax 
\gdef\HyperFirstAtBeginDocument#1{#1}
\providecommand\HyField@AuxAddToFields[1]{}
\providecommand\HyField@AuxAddToCoFields[2]{}
\catcode `"\active 
\babel@aux{ngerman}{}
\gdef \LT@i {\LT@entry 
    {1}{33.54158pt}\LT@entry 
    {1}{38.67345pt}\LT@entry 
    {1}{213.16928pt}\LT@entry 
    {1}{30.62491pt}\LT@entry 
    {1}{34.36101pt}}
\gdef \LT@ii {\LT@entry 
    {1}{33.54158pt}\LT@entry 
    {1}{38.67345pt}\LT@entry 
    {1}{198.9429pt}\LT@entry 
    {1}{30.62491pt}\LT@entry 
    {1}{46.22345pt}\LT@entry 
    {1}{36.15265pt}}
\gdef \LT@iii {\LT@entry 
    {1}{33.54158pt}\LT@entry 
    {1}{38.67345pt}\LT@entry 
    {1}{213.16928pt}\LT@entry 
    {1}{30.62491pt}\LT@entry 
    {1}{34.36101pt}}
\@writefile{toc}{\contentsline {chapter}{\numberline {1}Status}{5}{chapter.1}}
\@writefile{lof}{\addvspace {10\p@ }}
\@writefile{lot}{\addvspace {10\p@ }}
\@writefile{toc}{\contentsline {section}{\numberline {1.1}Selected for Sprint}{5}{section.1.1}}
\@writefile{toc}{\contentsline {section}{\numberline {1.2}Assigned}{5}{section.1.2}}
\@writefile{toc}{\contentsline {section}{\numberline {1.3}Backlog}{5}{section.1.3}}
\@writefile{toc}{\contentsline {section}{\numberline {1.4}Requirements Elaboration List}{5}{section.1.4}}
\gdef \LT@iv {\LT@entry 
    {1}{33.54158pt}\LT@entry 
    {2}{45.33344pt}\LT@entry 
    {1}{213.16928pt}\LT@entry 
    {1}{30.62491pt}\LT@entry 
    {1}{34.36101pt}}
\gdef \LT@v {\LT@entry 
    {1}{36.70172pt}\LT@entry 
    {1}{170.49014pt}\LT@entry 
    {1}{29.2317pt}\LT@entry 
    {1}{43.6984pt}\LT@entry 
    {1}{34.365pt}\LT@entry 
    {1}{36.12819pt}\LT@entry 
    {1}{27.82555pt}}
\gdef \LT@vi {\LT@entry 
    {1}{123.61139pt}\LT@entry 
    {1}{58.6668pt}\LT@entry 
    {1}{53.72234pt}}
\@writefile{toc}{\contentsline {section}{\numberline {1.5}Finished}{7}{section.1.5}}
\@writefile{toc}{\contentsline {section}{\numberline {1.6}Statistics}{7}{section.1.6}}
\@writefile{toc}{\contentsline {chapter}{\numberline {2}Anforderungen an die querschnittliche Belange}{8}{chapter.2}}
\@writefile{lof}{\addvspace {10\p@ }}
\@writefile{lot}{\addvspace {10\p@ }}
\@writefile{toc}{\contentsline {section}{\numberline {2.1}QuerschnittlicheBelange}{8}{section.2.1}}
\newlabel{QuerschnittlicheBelange}{{2.1}{8}{QuerschnittlicheBelange}{section.2.1}{}}
\@writefile{toc}{\contentsline {section}{\numberline {2.2}Anforderungen an die Ausnutzung von Parallelit\IeC {\"a}t}{8}{section.2.2}}
\@writefile{toc}{\contentsline {subsection}{\numberline {2.2.1}Parallelit\IeC {\"a}t}{8}{subsection.2.2.1}}
\newlabel{Parallelitaet}{{2.2.1}{8}{Parallelität}{subsection.2.2.1}{}}
\@writefile{toc}{\contentsline {subsection}{\numberline {2.2.2}Anforderungen an die Benutzung der Grafikkarte}{9}{subsection.2.2.2}}
\@writefile{toc}{\contentsline {subsubsection}{\numberline {2.2.2.1}GPU}{9}{subsubsection.2.2.2.1}}
\newlabel{GPU}{{2.2.2.1}{9}{GPU}{subsubsection.2.2.2.1}{}}
\@writefile{toc}{\contentsline {subsubsection}{\numberline {2.2.2.2}Grafikkarte}{9}{subsubsection.2.2.2.2}}
\newlabel{Grafikkarte}{{2.2.2.2}{9}{Grafikkarte}{subsubsection.2.2.2.2}{}}
\@writefile{toc}{\contentsline {subsubsection}{\numberline {2.2.2.3}OpenCL}{9}{subsubsection.2.2.2.3}}
\newlabel{OpenCL}{{2.2.2.3}{9}{OpenCL}{subsubsection.2.2.2.3}{}}
\@writefile{toc}{\contentsline {subsubsection}{\numberline {2.2.2.4}OpenGL}{9}{subsubsection.2.2.2.4}}
\newlabel{OpenGL}{{2.2.2.4}{9}{OpenGL}{subsubsection.2.2.2.4}{}}
\@writefile{toc}{\contentsline {subsubsection}{\numberline {2.2.2.5}Software Anbindung}{10}{subsubsection.2.2.2.5}}
\newlabel{SoftwareAnbindung}{{2.2.2.5}{10}{Software Anbindung}{subsubsection.2.2.2.5}{}}
\@writefile{toc}{\contentsline {subsection}{\numberline {2.2.3}Anforderungen an Stationen}{10}{subsection.2.2.3}}
\@writefile{toc}{\contentsline {subsubsection}{\numberline {2.2.3.1}Aufgaben-Verteilung}{10}{subsubsection.2.2.3.1}}
\newlabel{AufgabenVerteilung}{{2.2.3.1}{10}{Aufgaben-Verteilung}{subsubsection.2.2.3.1}{}}
\@writefile{toc}{\contentsline {subsubsection}{\numberline {2.2.3.2}Automatische Verteilung}{10}{subsubsection.2.2.3.2}}
\newlabel{AutomatischeVerteilung}{{2.2.3.2}{10}{Automatische Verteilung}{subsubsection.2.2.3.2}{}}
\@writefile{toc}{\contentsline {subsubsection}{\numberline {2.2.3.3}Bootloader}{11}{subsubsection.2.2.3.3}}
\newlabel{Bootloader}{{2.2.3.3}{11}{Bootloader}{subsubsection.2.2.3.3}{}}
\@writefile{toc}{\contentsline {subsubsection}{\numberline {2.2.3.4}Draht gebunden}{11}{subsubsection.2.2.3.4}}
\newlabel{DrahtGebunden}{{2.2.3.4}{11}{Draht gebunden}{subsubsection.2.2.3.4}{}}
\@writefile{toc}{\contentsline {subsubsection}{\numberline {2.2.3.5}Drahtlos}{11}{subsubsection.2.2.3.5}}
\newlabel{DrahtLos}{{2.2.3.5}{11}{Drahtlos}{subsubsection.2.2.3.5}{}}
\@writefile{toc}{\contentsline {subsubsection}{\numberline {2.2.3.6}Ethernet}{11}{subsubsection.2.2.3.6}}
\newlabel{Ethernet}{{2.2.3.6}{11}{Ethernet}{subsubsection.2.2.3.6}{}}
\@writefile{toc}{\contentsline {subsubsection}{\numberline {2.2.3.7}Mehrere Handys}{12}{subsubsection.2.2.3.7}}
\newlabel{MehrereHandys}{{2.2.3.7}{12}{Mehrere Handys}{subsubsection.2.2.3.7}{}}
\@writefile{toc}{\contentsline {subsubsection}{\numberline {2.2.3.8}Mehrere Rechner}{12}{subsubsection.2.2.3.8}}
\newlabel{MehrereRechner}{{2.2.3.8}{12}{Mehrere Rechner}{subsubsection.2.2.3.8}{}}
\@writefile{toc}{\contentsline {subsubsection}{\numberline {2.2.3.9}Skalierung der Stationen}{12}{subsubsection.2.2.3.9}}
\newlabel{SkalierungStationen}{{2.2.3.9}{12}{Skalierung der Stationen}{subsubsection.2.2.3.9}{}}
\@writefile{toc}{\contentsline {subsubsection}{\numberline {2.2.3.10}Skalierungsfaktor Stationen}{12}{subsubsection.2.2.3.10}}
\newlabel{SkalierungsfaktorStationen}{{2.2.3.10}{12}{Skalierungsfaktor Stationen}{subsubsection.2.2.3.10}{}}
\@writefile{toc}{\contentsline {subsubsection}{\numberline {2.2.3.11}Stationen}{13}{subsubsection.2.2.3.11}}
\newlabel{Stationen}{{2.2.3.11}{13}{Stationen}{subsubsection.2.2.3.11}{}}
\@writefile{toc}{\contentsline {subsubsection}{\numberline {2.2.3.12}USB}{13}{subsubsection.2.2.3.12}}
\newlabel{USB}{{2.2.3.12}{13}{USB}{subsubsection.2.2.3.12}{}}
\@writefile{toc}{\contentsline {subsubsection}{\numberline {2.2.3.13}Verbindungswege}{13}{subsubsection.2.2.3.13}}
\newlabel{Verbindungswege}{{2.2.3.13}{13}{Verbindungswege}{subsubsection.2.2.3.13}{}}
\@writefile{toc}{\contentsline {subsubsection}{\numberline {2.2.3.14}Werte gr\IeC {\"o}\IeC {\ss }er oder gleich Eins}{13}{subsubsection.2.2.3.14}}
\newlabel{WerteGroesserGleichEins}{{2.2.3.14}{13}{Werte größer oder gleich Eins}{subsubsection.2.2.3.14}{}}
\@writefile{toc}{\contentsline {subsubsection}{\numberline {2.2.3.15}Werte kleiner Eins}{13}{subsubsection.2.2.3.15}}
\newlabel{WerteKleinerEins}{{2.2.3.15}{13}{Werte kleiner Eins}{subsubsection.2.2.3.15}{}}
\@writefile{toc}{\contentsline {subsubsection}{\numberline {2.2.3.16}Werte des Skalierungsfaktors}{14}{subsubsection.2.2.3.16}}
\newlabel{WerteSkalierungsfaktor}{{2.2.3.16}{14}{Werte des Skalierungsfaktors}{subsubsection.2.2.3.16}{}}
\@writefile{toc}{\contentsline {subsubsection}{\numberline {2.2.3.17}Wireless 802}{14}{subsubsection.2.2.3.17}}
\newlabel{Wireless802}{{2.2.3.17}{14}{Wireless 802}{subsubsection.2.2.3.17}{}}
\@writefile{toc}{\contentsline {subsection}{\numberline {2.2.4}Anforderungen, um Tasking zu verwenden}{14}{subsection.2.2.4}}
\@writefile{toc}{\contentsline {subsubsection}{\numberline {2.2.4.1}Abbruch bei Fehler}{14}{subsubsection.2.2.4.1}}
\newlabel{AbbruchBeiFehler}{{2.2.4.1}{14}{Abbruch bei Fehler}{subsubsection.2.2.4.1}{}}
\@writefile{toc}{\contentsline {subsubsection}{\numberline {2.2.4.2}Abbruch durch Benutzer}{14}{subsubsection.2.2.4.2}}
\newlabel{AbbruchDurchBenutzer}{{2.2.4.2}{14}{Abbruch durch Benutzer}{subsubsection.2.2.4.2}{}}
\@writefile{toc}{\contentsline {subsubsection}{\numberline {2.2.4.3}Abbruch-Verhalten}{15}{subsubsection.2.2.4.3}}
\newlabel{AbbruchVerhalten}{{2.2.4.3}{15}{Abbruch-Verhalten}{subsubsection.2.2.4.3}{}}
\@writefile{toc}{\contentsline {subsubsection}{\numberline {2.2.4.4}Asynchroner Abbruch}{15}{subsubsection.2.2.4.4}}
\newlabel{AsynchronerAbbruch}{{2.2.4.4}{15}{Asynchroner Abbruch}{subsubsection.2.2.4.4}{}}
\@writefile{toc}{\contentsline {subsubsection}{\numberline {2.2.4.5}Automatische Skalierung Tasks}{15}{subsubsection.2.2.4.5}}
\newlabel{AutomatischeSkalierungTasks}{{2.2.4.5}{15}{Automatische Skalierung Tasks}{subsubsection.2.2.4.5}{}}
\@writefile{toc}{\contentsline {subsubsection}{\numberline {2.2.4.6}Rechenzeitintensive Tasks}{15}{subsubsection.2.2.4.6}}
\newlabel{RechenzeitintensiveTasks}{{2.2.4.6}{15}{Rechenzeitintensive Tasks}{subsubsection.2.2.4.6}{}}
\@writefile{toc}{\contentsline {subsubsection}{\numberline {2.2.4.7}Skalierung Tasks}{15}{subsubsection.2.2.4.7}}
\newlabel{SkalierungTasks}{{2.2.4.7}{15}{Skalierung Tasks}{subsubsection.2.2.4.7}{}}
\@writefile{toc}{\contentsline {subsubsection}{\numberline {2.2.4.8}Synchroner Abbruch}{16}{subsubsection.2.2.4.8}}
\newlabel{SynchronerAbbruch}{{2.2.4.8}{16}{Synchroner Abbruch}{subsubsection.2.2.4.8}{}}
\@writefile{toc}{\contentsline {subsubsection}{\numberline {2.2.4.9}Tasks}{16}{subsubsection.2.2.4.9}}
\newlabel{Tasks}{{2.2.4.9}{16}{Tasks}{subsubsection.2.2.4.9}{}}
\@writefile{toc}{\contentsline {subsubsection}{\numberline {2.2.4.10}Verwaltungs-Tasks}{16}{subsubsection.2.2.4.10}}
\newlabel{Verwaltungstasks}{{2.2.4.10}{16}{Verwaltungs-Tasks}{subsubsection.2.2.4.10}{}}
\@writefile{toc}{\contentsline {section}{\numberline {2.3}Anforderungen an die Performance des Systems}{17}{section.2.3}}
\@writefile{toc}{\contentsline {subsection}{\numberline {2.3.1}Performance}{17}{subsection.2.3.1}}
\newlabel{Performance}{{2.3.1}{17}{Performance}{subsection.2.3.1}{}}
\@writefile{toc}{\contentsline {subsection}{\numberline {2.3.2}Performance Application}{17}{subsection.2.3.2}}
\newlabel{PerformanceApplication}{{2.3.2}{17}{Performance Application}{subsection.2.3.2}{}}
\@writefile{toc}{\contentsline {subsection}{\numberline {2.3.3}Performance Client}{17}{subsection.2.3.3}}
\newlabel{PerformanceClient}{{2.3.3}{17}{Performance Client}{subsection.2.3.3}{}}
\@writefile{toc}{\contentsline {subsection}{\numberline {2.3.4}Performance Server}{17}{subsection.2.3.4}}
\newlabel{PerformanceServer}{{2.3.4}{17}{Performance Server}{subsection.2.3.4}{}}
\@writefile{toc}{\contentsline {section}{\numberline {2.4}Anforderungen an die Kompatibilit\IeC {\"a}t}{18}{section.2.4}}
\@writefile{toc}{\contentsline {subsection}{\numberline {2.4.1}Abw\IeC {\"a}rts-Kompatibilit\IeC {\"a}t}{18}{subsection.2.4.1}}
\newlabel{AbwaertsKompatibilitaet}{{2.4.1}{18}{Abwärts-Kompatibilität}{subsection.2.4.1}{}}
\@writefile{toc}{\contentsline {subsection}{\numberline {2.4.2}Aufw\IeC {\"a}rts-Kompatibilit\IeC {\"a}t}{18}{subsection.2.4.2}}
\newlabel{AufwaertsKompatibilitaet}{{2.4.2}{18}{Aufwärts-Kompatibilität}{subsection.2.4.2}{}}
\@writefile{toc}{\contentsline {subsection}{\numberline {2.4.3}Datenkompatibilit\IeC {\"a}t}{18}{subsection.2.4.3}}
\newlabel{Datenkompatibilitaet}{{2.4.3}{18}{Datenkompatibilität}{subsection.2.4.3}{}}
\@writefile{toc}{\contentsline {subsection}{\numberline {2.4.4}Fehler-Kompatibilit\IeC {\"a}t}{19}{subsection.2.4.4}}
\newlabel{FehlerKompatibilitaet}{{2.4.4}{19}{Fehler-Kompatibilität}{subsection.2.4.4}{}}
\@writefile{toc}{\contentsline {subsection}{\numberline {2.4.5}Kompatibilit\IeC {\"a}t}{19}{subsection.2.4.5}}
\newlabel{Kompatibilitaet}{{2.4.5}{19}{Kompatibilität}{subsection.2.4.5}{}}
\@writefile{toc}{\contentsline {subsection}{\numberline {2.4.6}Programmkompatibilit\IeC {\"a}t}{19}{subsection.2.4.6}}
\newlabel{Programmkompatibilitaet}{{2.4.6}{19}{Programmkompatibilität}{subsection.2.4.6}{}}
\@writefile{toc}{\contentsline {section}{\numberline {2.5}Anforderungen an die Speicherverwaltung}{20}{section.2.5}}
\@writefile{toc}{\contentsline {subsection}{\numberline {2.5.1}Komplettes Laden}{20}{subsection.2.5.1}}
\newlabel{KomplettesLaden}{{2.5.1}{20}{Komplettes Laden}{subsection.2.5.1}{}}
\@writefile{toc}{\contentsline {subsection}{\numberline {2.5.2}Laden bei Bedarf}{20}{subsection.2.5.2}}
\newlabel{LadenBeiBedarf}{{2.5.2}{20}{Laden bei Bedarf}{subsection.2.5.2}{}}
\@writefile{toc}{\contentsline {subsection}{\numberline {2.5.3}Sparsamer Speichergebrauch}{20}{subsection.2.5.3}}
\newlabel{SparsamerSpeichergebrauch}{{2.5.3}{20}{Sparsamer Speichergebrauch}{subsection.2.5.3}{}}
\@writefile{toc}{\contentsline {subsection}{\numberline {2.5.4}Speicherverwaltung}{21}{subsection.2.5.4}}
\newlabel{Speicherverwaltung}{{2.5.4}{21}{Speicherverwaltung}{subsection.2.5.4}{}}
\@writefile{toc}{\contentsline {section}{\numberline {2.6}Anforderungen an den Test}{21}{section.2.6}}
\@writefile{toc}{\contentsline {subsection}{\numberline {2.6.1}Benutzer Test}{21}{subsection.2.6.1}}
\newlabel{BenutzerTest}{{2.6.1}{21}{Benutzer Test}{subsection.2.6.1}{}}
\@writefile{toc}{\contentsline {subsection}{\numberline {2.6.2}Blackbox Test}{21}{subsection.2.6.2}}
\newlabel{BlackboxTest}{{2.6.2}{21}{Blackbox Test}{subsection.2.6.2}{}}
\@writefile{toc}{\contentsline {subsection}{\numberline {2.6.3}C0 CodeCoverage}{22}{subsection.2.6.3}}
\newlabel{C0CodeCoverage}{{2.6.3}{22}{C0 CodeCoverage}{subsection.2.6.3}{}}
\@writefile{toc}{\contentsline {subsection}{\numberline {2.6.4}CUnit}{22}{subsection.2.6.4}}
\newlabel{CUnit}{{2.6.4}{22}{CUnit}{subsection.2.6.4}{}}
\@writefile{toc}{\contentsline {subsection}{\numberline {2.6.5}CodeCoverage}{22}{subsection.2.6.5}}
\newlabel{CodeCoverage}{{2.6.5}{22}{CodeCoverage}{subsection.2.6.5}{}}
\@writefile{toc}{\contentsline {subsection}{\numberline {2.6.6}CppUnit}{22}{subsection.2.6.6}}
\newlabel{CppUnit}{{2.6.6}{22}{CppUnit}{subsection.2.6.6}{}}
\@writefile{toc}{\contentsline {subsection}{\numberline {2.6.7}Debugger}{22}{subsection.2.6.7}}
\newlabel{Debugger}{{2.6.7}{22}{Debugger}{subsection.2.6.7}{}}
\@writefile{toc}{\contentsline {subsection}{\numberline {2.6.8}Integrationstest}{23}{subsection.2.6.8}}
\newlabel{IntegrationsTest}{{2.6.8}{23}{Integrationstest}{subsection.2.6.8}{}}
\@writefile{toc}{\contentsline {subsection}{\numberline {2.6.9}JUnit}{23}{subsection.2.6.9}}
\newlabel{JUnit}{{2.6.9}{23}{JUnit}{subsection.2.6.9}{}}
\@writefile{toc}{\contentsline {subsection}{\numberline {2.6.10}Performance Testing}{23}{subsection.2.6.10}}
\newlabel{PerformanceTesting}{{2.6.10}{23}{Performance Testing}{subsection.2.6.10}{}}
\@writefile{toc}{\contentsline {subsection}{\numberline {2.6.11}Systemtest}{23}{subsection.2.6.11}}
\newlabel{Systemtest}{{2.6.11}{23}{Systemtest}{subsection.2.6.11}{}}
\@writefile{toc}{\contentsline {subsection}{\numberline {2.6.12}Test}{23}{subsection.2.6.12}}
\newlabel{Test}{{2.6.12}{23}{Test}{subsection.2.6.12}{}}
\@writefile{toc}{\contentsline {subsection}{\numberline {2.6.13}Testreport}{24}{subsection.2.6.13}}
\newlabel{Testreport}{{2.6.13}{24}{Testreport}{subsection.2.6.13}{}}
\@writefile{toc}{\contentsline {subsection}{\numberline {2.6.14}Testspezifikation}{24}{subsection.2.6.14}}
\newlabel{Testspezifkation}{{2.6.14}{24}{Testspezifikation}{subsection.2.6.14}{}}
\@writefile{toc}{\contentsline {subsection}{\numberline {2.6.15}Toolunterst\IeC {\"u}tzung}{24}{subsection.2.6.15}}
\newlabel{Toolunterstuetzung}{{2.6.15}{24}{Toolunterstützung}{subsection.2.6.15}{}}
\@writefile{toc}{\contentsline {subsection}{\numberline {2.6.16}Undokumentiert}{24}{subsection.2.6.16}}
\newlabel{Undokumentiert}{{2.6.16}{24}{Undokumentiert}{subsection.2.6.16}{}}
\@writefile{toc}{\contentsline {subsection}{\numberline {2.6.17}UnitTest}{25}{subsection.2.6.17}}
\newlabel{UnitTest}{{2.6.17}{25}{UnitTest}{subsection.2.6.17}{}}
\@writefile{toc}{\contentsline {subsection}{\numberline {2.6.18}UnitTestRecord}{25}{subsection.2.6.18}}
\newlabel{UnitTestRecord}{{2.6.18}{25}{UnitTestRecord}{subsection.2.6.18}{}}
\@writefile{toc}{\contentsline {subsection}{\numberline {2.6.19}Whitebox-Test}{25}{subsection.2.6.19}}
\newlabel{WhiteboxTest}{{2.6.19}{25}{Whitebox-Test}{subsection.2.6.19}{}}
\@writefile{toc}{\contentsline {section}{\numberline {2.7}Anforderungen an die Sicherheit des Systems}{25}{section.2.7}}
\@writefile{toc}{\contentsline {subsection}{\numberline {2.7.1}\IeC {\"A}nderung bei Inbetriebnahme}{25}{subsection.2.7.1}}
\newlabel{AenderungBeiInbetriebnahme}{{2.7.1}{25}{Änderung bei Inbetriebnahme}{subsection.2.7.1}{}}
\@writefile{toc}{\contentsline {subsection}{\numberline {2.7.2}Benutzer}{26}{subsection.2.7.2}}
\newlabel{Benutzer}{{2.7.2}{26}{Benutzer}{subsection.2.7.2}{}}
\@writefile{toc}{\contentsline {subsection}{\numberline {2.7.3}Benutzer Admin}{26}{subsection.2.7.3}}
\newlabel{BenutzerAdmin}{{2.7.3}{26}{Benutzer Admin}{subsection.2.7.3}{}}
\@writefile{toc}{\contentsline {subsection}{\numberline {2.7.4}Benutzer Gast}{26}{subsection.2.7.4}}
\newlabel{BenutzerGast}{{2.7.4}{26}{Benutzer Gast}{subsection.2.7.4}{}}
\@writefile{toc}{\contentsline {subsection}{\numberline {2.7.5}Default Passwort}{26}{subsection.2.7.5}}
\newlabel{DefaultPasswort}{{2.7.5}{26}{Default Passwort}{subsection.2.7.5}{}}
\@writefile{toc}{\contentsline {subsection}{\numberline {2.7.6}Erzeugung des Default Passwortes}{26}{subsection.2.7.6}}
\newlabel{ErzeugungDefaultPasswort}{{2.7.6}{26}{Erzeugung des Default Passwortes}{subsection.2.7.6}{}}
\@writefile{toc}{\contentsline {subsection}{\numberline {2.7.7}IT Sicherheit}{27}{subsection.2.7.7}}
\newlabel{ITSicherheit}{{2.7.7}{27}{IT Sicherheit}{subsection.2.7.7}{}}
\@writefile{toc}{\contentsline {subsection}{\numberline {2.7.8}Mitre CVE}{27}{subsection.2.7.8}}
\newlabel{MitreCVE}{{2.7.8}{27}{Mitre CVE}{subsection.2.7.8}{}}
\@writefile{toc}{\contentsline {subsection}{\numberline {2.7.9}Mitre CWE}{27}{subsection.2.7.9}}
\newlabel{MitreCWE}{{2.7.9}{27}{Mitre CWE}{subsection.2.7.9}{}}
\@writefile{toc}{\contentsline {subsection}{\numberline {2.7.10}OpenSSH}{27}{subsection.2.7.10}}
\newlabel{OpenSSH}{{2.7.10}{27}{OpenSSH}{subsection.2.7.10}{}}
\@writefile{toc}{\contentsline {subsection}{\numberline {2.7.11}Passw\IeC {\"o}rter}{27}{subsection.2.7.11}}
\newlabel{Passwoerter}{{2.7.11}{27}{Passwörter}{subsection.2.7.11}{}}
\@writefile{toc}{\contentsline {subsection}{\numberline {2.7.12}Passwort Verwaltung}{28}{subsection.2.7.12}}
\newlabel{PasswortVerwaltung}{{2.7.12}{28}{Passwort Verwaltung}{subsection.2.7.12}{}}
\@writefile{toc}{\contentsline {subsection}{\numberline {2.7.13}Reset Passwort}{28}{subsection.2.7.13}}
\newlabel{ResetPasswort}{{2.7.13}{28}{Reset Passwort}{subsection.2.7.13}{}}
\@writefile{toc}{\contentsline {subsection}{\numberline {2.7.14}Sicherer Code}{28}{subsection.2.7.14}}
\newlabel{SichererCode}{{2.7.14}{28}{Sicherer Code}{subsection.2.7.14}{}}
\@writefile{toc}{\contentsline {subsection}{\numberline {2.7.15}Sicherheit}{28}{subsection.2.7.15}}
\newlabel{Sicherheit}{{2.7.15}{28}{Sicherheit}{subsection.2.7.15}{}}
\@writefile{toc}{\contentsline {subsection}{\numberline {2.7.16}Verschl\IeC {\"u}sselung}{28}{subsection.2.7.16}}
\newlabel{Verschluesselung}{{2.7.16}{28}{Verschlüsselung}{subsection.2.7.16}{}}
\@writefile{toc}{\contentsline {subsection}{\numberline {2.7.17}Zugang}{29}{subsection.2.7.17}}
\newlabel{Zugang}{{2.7.17}{29}{Zugang}{subsection.2.7.17}{}}
