\relax 
\providecommand\hyper@newdestlabel[2]{}
\providecommand\HyperFirstAtBeginDocument{\AtBeginDocument}
\HyperFirstAtBeginDocument{\ifx\hyper@anchor\@undefined
\global\let\oldcontentsline\contentsline
\gdef\contentsline#1#2#3#4{\oldcontentsline{#1}{#2}{#3}}
\global\let\oldnewlabel\newlabel
\gdef\newlabel#1#2{\newlabelxx{#1}#2}
\gdef\newlabelxx#1#2#3#4#5#6{\oldnewlabel{#1}{{#2}{#3}}}
\AtEndDocument{\ifx\hyper@anchor\@undefined
\let\contentsline\oldcontentsline
\let\newlabel\oldnewlabel
\fi}
\fi}
\global\let\hyper@last\relax 
\gdef\HyperFirstAtBeginDocument#1{#1}
\providecommand\HyField@AuxAddToFields[1]{}
\providecommand\HyField@AuxAddToCoFields[2]{}
\catcode `"\active 
\babel@aux{ngerman}{}
\gdef \LT@i {\LT@entry 
    {1}{33.54158pt}\LT@entry 
    {1}{38.67345pt}\LT@entry 
    {1}{213.16928pt}\LT@entry 
    {1}{30.62491pt}\LT@entry 
    {1}{34.36101pt}}
\gdef \LT@ii {\LT@entry 
    {1}{33.54158pt}\LT@entry 
    {1}{38.67345pt}\LT@entry 
    {1}{198.9429pt}\LT@entry 
    {1}{30.62491pt}\LT@entry 
    {1}{46.22345pt}\LT@entry 
    {1}{36.15265pt}}
\gdef \LT@iii {\LT@entry 
    {1}{33.54158pt}\LT@entry 
    {1}{38.67345pt}\LT@entry 
    {1}{213.16928pt}\LT@entry 
    {1}{30.62491pt}\LT@entry 
    {1}{34.36101pt}}
\@writefile{toc}{\contentsline {chapter}{\numberline {1}Status}{3}{chapter.1}}
\@writefile{lof}{\addvspace {10\p@ }}
\@writefile{lot}{\addvspace {10\p@ }}
\@writefile{toc}{\contentsline {section}{\numberline {1.1}Selected for Sprint}{3}{section.1.1}}
\@writefile{toc}{\contentsline {section}{\numberline {1.2}Assigned}{3}{section.1.2}}
\@writefile{toc}{\contentsline {section}{\numberline {1.3}Backlog}{3}{section.1.3}}
\@writefile{toc}{\contentsline {section}{\numberline {1.4}Requirements Elaboration List}{3}{section.1.4}}
\gdef \LT@iv {\LT@entry 
    {2}{34.77786pt}\LT@entry 
    {1}{38.67345pt}\LT@entry 
    {1}{213.16928pt}\LT@entry 
    {1}{30.62491pt}\LT@entry 
    {1}{34.36101pt}}
\gdef \LT@v {\LT@entry 
    {1}{36.70172pt}\LT@entry 
    {1}{170.49014pt}\LT@entry 
    {1}{29.2317pt}\LT@entry 
    {1}{43.6984pt}\LT@entry 
    {1}{34.365pt}\LT@entry 
    {1}{36.12819pt}\LT@entry 
    {1}{27.82555pt}}
\gdef \LT@vi {\LT@entry 
    {1}{123.61139pt}\LT@entry 
    {1}{58.6668pt}\LT@entry 
    {1}{53.72234pt}}
\@writefile{toc}{\contentsline {section}{\numberline {1.5}Finished}{4}{section.1.5}}
\@writefile{toc}{\contentsline {section}{\numberline {1.6}Statistics}{4}{section.1.6}}
\@writefile{toc}{\contentsline {chapter}{\numberline {2}Programmentwicklung}{5}{chapter.2}}
\@writefile{lof}{\addvspace {10\p@ }}
\@writefile{lot}{\addvspace {10\p@ }}
\@writefile{toc}{\contentsline {section}{\numberline {2.1}Programmentwicklung}{5}{section.2.1}}
\@writefile{toc}{\contentsline {subsection}{\numberline {2.1.1}3 stellige Versionsnummer}{5}{subsection.2.1.1}}
\newlabel{3stelligeVersionsnummer}{{2.1.1}{5}{3 stellige Versionsnummer}{subsection.2.1.1}{}}
\@writefile{toc}{\contentsline {subsection}{\numberline {2.1.2}Android}{5}{subsection.2.1.2}}
\newlabel{Android}{{2.1.2}{5}{Android}{subsection.2.1.2}{}}
\@writefile{toc}{\contentsline {subsection}{\numberline {2.1.3}AndroidStudio}{6}{subsection.2.1.3}}
\newlabel{AndroidStudio}{{2.1.3}{6}{AndroidStudio}{subsection.2.1.3}{}}
\@writefile{toc}{\contentsline {subsection}{\numberline {2.1.4}Betriebssysteme}{6}{subsection.2.1.4}}
\newlabel{Betriebssysteme}{{2.1.4}{6}{Betriebssysteme}{subsection.2.1.4}{}}
\@writefile{toc}{\contentsline {subsection}{\numberline {2.1.5}C}{6}{subsection.2.1.5}}
\newlabel{C}{{2.1.5}{6}{C}{subsection.2.1.5}{}}
\@writefile{toc}{\contentsline {subsection}{\numberline {2.1.6}Cpp}{6}{subsection.2.1.6}}
\newlabel{Cpp}{{2.1.6}{6}{Cpp}{subsection.2.1.6}{}}
\@writefile{toc}{\contentsline {subsection}{\numberline {2.1.7}Git}{6}{subsection.2.1.7}}
\newlabel{Git}{{2.1.7}{6}{Git}{subsection.2.1.7}{}}
\@writefile{toc}{\contentsline {subsection}{\numberline {2.1.8}Handy}{7}{subsection.2.1.8}}
\newlabel{Handy}{{2.1.8}{7}{Handy}{subsection.2.1.8}{}}
\@writefile{toc}{\contentsline {subsection}{\numberline {2.1.9}Hardware}{7}{subsection.2.1.9}}
\newlabel{Hardware}{{2.1.9}{7}{Hardware}{subsection.2.1.9}{}}
\@writefile{toc}{\contentsline {subsection}{\numberline {2.1.10}IDEs}{7}{subsection.2.1.10}}
\newlabel{IDEs}{{2.1.10}{7}{IDEs}{subsection.2.1.10}{}}
\@writefile{toc}{\contentsline {subsection}{\numberline {2.1.11}Java}{7}{subsection.2.1.11}}
\newlabel{Java}{{2.1.11}{7}{Java}{subsection.2.1.11}{}}
\@writefile{toc}{\contentsline {subsection}{\numberline {2.1.12}Java Styleguide}{7}{subsection.2.1.12}}
\newlabel{JavaStyleGuide}{{2.1.12}{7}{Java Styleguide}{subsection.2.1.12}{}}
\@writefile{toc}{\contentsline {subsection}{\numberline {2.1.13}Kommentare}{8}{subsection.2.1.13}}
\newlabel{Kommentare}{{2.1.13}{8}{Kommentare}{subsection.2.1.13}{}}
\@writefile{toc}{\contentsline {subsection}{\numberline {2.1.14}Linux}{8}{subsection.2.1.14}}
\newlabel{Linux}{{2.1.14}{8}{Linux}{subsection.2.1.14}{}}
\@writefile{toc}{\contentsline {subsection}{\numberline {2.1.15}Netbeans}{8}{subsection.2.1.15}}
\newlabel{Netbeans}{{2.1.15}{8}{Netbeans}{subsection.2.1.15}{}}
\@writefile{toc}{\contentsline {subsection}{\numberline {2.1.16}PC}{8}{subsection.2.1.16}}
\newlabel{PC}{{2.1.16}{8}{PC}{subsection.2.1.16}{}}
\@writefile{toc}{\contentsline {subsection}{\numberline {2.1.17}Programmentwicklung}{9}{subsection.2.1.17}}
\newlabel{Programmentwicklung}{{2.1.17}{9}{Programmentwicklung}{subsection.2.1.17}{}}
\@writefile{toc}{\contentsline {subsection}{\numberline {2.1.18}Programmiersprachen}{9}{subsection.2.1.18}}
\newlabel{Programmiersprachen}{{2.1.18}{9}{Programmiersprachen}{subsection.2.1.18}{}}
\@writefile{toc}{\contentsline {subsection}{\numberline {2.1.19}Quellcode}{9}{subsection.2.1.19}}
\newlabel{Quellcode}{{2.1.19}{9}{Quellcode}{subsection.2.1.19}{}}
\@writefile{toc}{\contentsline {subsection}{\numberline {2.1.20}Referenzierung der Anforderungen}{9}{subsection.2.1.20}}
\newlabel{ReferenzierungAnforderungen}{{2.1.20}{9}{Referenzierung der Anforderungen}{subsection.2.1.20}{}}
\@writefile{toc}{\contentsline {subsection}{\numberline {2.1.21}Referenzierung mit Label Req0000}{10}{subsection.2.1.21}}
\newlabel{Req0000}{{2.1.21}{10}{Referenzierung mit Label Req0000}{subsection.2.1.21}{}}
\@writefile{toc}{\contentsline {subsection}{\numberline {2.1.22}Sp\IeC {\"a}rliche Kommentare}{10}{subsection.2.1.22}}
\newlabel{SpaerlicheKommentare}{{2.1.22}{10}{Spärliche Kommentare}{subsection.2.1.22}{}}
\@writefile{toc}{\contentsline {subsection}{\numberline {2.1.23}Styleguide}{10}{subsection.2.1.23}}
\newlabel{Styleguide}{{2.1.23}{10}{Styleguide}{subsection.2.1.23}{}}
\@writefile{toc}{\contentsline {subsection}{\numberline {2.1.24}Versionsnummer}{10}{subsection.2.1.24}}
\newlabel{Versionsnummer}{{2.1.24}{10}{Versionsnummer}{subsection.2.1.24}{}}
\@writefile{toc}{\contentsline {subsection}{\numberline {2.1.25}Versionsverwaltung}{11}{subsection.2.1.25}}
\newlabel{Versionsverwaltung}{{2.1.25}{11}{Versionsverwaltung}{subsection.2.1.25}{}}
